[
	{ text: " - Select a value - ", value: null },
	{ text: " - None - ", value: "_none" },
	{
	value: "Kuala Lumpur",
	text: "Kuala Lumpur"
	},
	{
	value: "Selangor",
	text: "Selangor"
	},
	{
	value: "Penang",
	text: "Penang"
	},
	{
	value: "Johor",
	text: "Johor"
	},
	{
	value: "Kedah",
	text: "Kedah"
	},
	{
	value: "Kelantan",
	text: "Kelantan"
	},
	{
	value: "Labuan",
	text: "Labuan"
	},
	{
	value: "Melaka",
	text: "Melaka"
	},
	{
	value: "Negeri Sembilan",
	text: "Negeri Sembilan"
	},
	{
	value: "Pahang",
	text: "Pahang"
	},
	{
	value: "Perak",
	text: "Perak"
	},
	{
	value: "Perlis",
	text: "Perlis"
	},
	{
	value: "Putrajaya",
	text: "Putrajaya"
	},
	{
	value: "Sabah",
	text: "Sabah"
	},
	{
	value: "Sarawak",
	text: "Sarawak"
	},
	{
	value: "Terengganu",
	text: "Terengganu"
	}/*,
	{
	value: 17,
	text: "Other"
	}*/
];
