[
    {
        "label": "Kuala Lumpur",
        "value": "1",
        "id": "1",
        "drop": [
          { "value": "1", "label": "Ampang" },
          { "value": "2", "label": "Ampang Hilir" },
          { "value": "4", "label": "Bandar Menjalara" },
          { "value": "5", "label": "Bandar Tasik Selatan" },
          { "value": "6", "label": "Bandar Tun Razak" },
          { "value": "7", "label": "Bangsar" },
          { "value": "8", "label": "Bangsar South" },
          { "value": "9", "label": "Batu" },
          { "value": "10", "label": "Brickfields" },
          { "value": "11", "label": "Bukit Bintang" },
          { "value": "12", "label": "Bukit Jalil" },
          { "value": "15", "label": "Bukit Prima Pelangi" },
          { "value": "17", "label": "Cheras" },
          { "value": "18", "label": "Country Heights Damansara" },
          { "value": "19", "label": "Damansara" },
          { "value": "20", "label": "Damansara Heights" },
          { "value": "21", "label": "Desa Pandan" },
          { "value": "22", "label": "Desa Parkcity" },
          { "value": "23", "label": "Desa Petaling" },
          { "value": "24", "label": "Gombak" },
          { "value": "25", "label": "Jalan Ipoh" },
          { "value": "26", "label": "Jalan Klang Lama (Old Klang Road)" },
          { "value": "27", "label": "Jalan Kuching" },
          { "value": "29", "label": "Jinjang" },
          { "value": "30", "label": "Kampung Pandan" },
          { "value": "31", "label": "Kenny Hills (Bukit Tunku)" },
          { "value": "32", "label": "Kepong" },
          { "value": "33", "label": "Keramat" },
          { "value": "35", "label": "KL City" },
          { "value": "36", "label": "KL Sentral" },
          { "value": "37", "label": "KLCC" },
          { "value": "38", "label": "Kuchai Lama" },
          { "value": "40", "label": "Mid Valley City" },
          { "value": "41", "label": "Mont Kiara" },
          { "value": "45", "label": "Pantai" },
          { "value": "46", "label": "Pantai Dalam/Kerinchi" },
          { "value": "49", "label": "Pudu" },
          { "value": "50", "label": "Salak Selatan" },
          { "value": "51", "label": "Segambut" },
          { "value": "53", "label": "Sentul" },
          { "value": "54", "label": "Seputeh" },
          { "value": "56", "label": "Setapak" },
          { "value": "57", "label": "Taman Setiawangsa" },
          { "value": "58", "label": "Dutamas" },
          { "value": "60", "label": "Sri Hartamas"},
          { "value": "61", "label": "Bandar Baru Sri Petaling" },
          { "value": "62", "label": "Sungai Besi" },
          { "value": "63", "label": "Kampung Sungai Penchala" },
          { "value": "64", "label": "Sunway SPK Damansara" },
          { "value": "65", "label": "Taman Desa"},
          { "value": "66", "label": "Taman Duta" },
          { "value": "67", "label": "Taman Melawati" },
          { "value": "68", "label": "Taman OUG" },
          { "value": "70", "label": "Taman Tun Dr Ismail" },
          { "value": "71", "label": "Taman U-Thant" },
          { "value": "72", "label": "Technology Park Malaysia"},
          { "value": "73", "label": "Titiwangsa"},
          { "value": "74", "label": "Wangsa Maju" },
        ]
    },
    {
        "label": "Selangor",
        "value": "2",
        "id": "2",
        "drop": [
            { "value": "78", "label": "Ampang" },
            { "value": "79", "label": "Ara Damansara" },
            { "value": "80", "label": "Balakong" },
            { "value": "81", "label": "Bandar Botanic/Bandar Bukit Tinggi" },
            { "value": "82", "label": "Bandar Bukit Raja" },
            { "value": "84", "label": "Bandar Kinrara Puchong" },
            { "value": "86", "label": "Bandar Puteri Puchong" },
            { "value": "88", "label": "Bandar Saujana Putra" },
            { "value": "89", "label": "Bandar Sungai Long" },
            { "value": "90", "label": "Bandar Sunway" },
            { "value": "91", "label": "Bandar Utama" },
            { "value": "92", "label": "Bangi" },
            { "value": "93", "label": "Banting" },
            { "value": "94", "label": "Batang Berjuntai" },
            { "value": "95", "label": "Batang Kali" },
            { "value": "96", "label": "Batu Arang" },
            { "value": "97", "label": "Batu Caves"},
            { "value": "98", "label": "Beranang" },
            { "value": "99", "label": "Bukit Jelutong" },
            { "value": "100", "label": "Bukit Rahman Putra" },
            { "value": "102", "label": "Bukit Subang" },
            { "value": "103", "label": "Cheras" },
            { "value": "104", "label": "Country Heights" },
            { "value": "105", "label": "Cyberjaya" },
            { "value": "106", "label": "Damansara Damai" },
            { "value": "108", "label": "Damansara Jaya" },
            { "value": "110", "label": "Damansara Perdana" },
            { "value": "112", "label": "Damansara Utama" },
            { "value": "113", "label": "Denai Alam" },
            { "value": "114", "label": "Dengkil" },
            { "value": "115", "label": "Glenmarie" },
            { "value": "116", "label": "Gombak" },
            { "value": "118", "label": "Hulu Langat" },
            { "value": "119", "label": "Hulu Selangor" },
            { "value": "120", "label": "Jenjarom" },
            { "value": "121", "label": "Kajang" },
            { "value": "122", "label": "Kapar"},
            { "value": "123", "label": "Kayu Ara" },
            { "value": "124", "label": "Kelana Jaya" },
            { "value": "125", "label": "Kerling" },
            { "value": "126", "label": "Klang" },
            { "value": "127", "label": "Kota Damansara" },
            { "value": "129", "label": "Kota Kemuning" },
            { "value": "130", "label": "Kuala Kubu Baru" },
            { "value": "132", "label": "Kuala Selangor" },
            { "value": "133", "label": "Kuang" },
            { "value": "134", "label": "Mutiara Damansara" },
            { "value": "136", "label": "Petaling Jaya" },
            { "value": "137", "label": "Port Klang" },
            { "value": "138", "label": "Puchong" },
            { "value": "139", "label": "Puchong South" },
            { "value": "140", "label": "Pulau Carey" },
            { "value": "141", "label": "Pulau Indah (Pulau Lumut)" },
            { "value": "142", "label": "Pulau Ketam" },
            { "value": "143", "label": "Puncak Jalil" },
            { "value": "144", "label": "Putra Heights" },
            { "value": "145", "label": "Putrajaya" },
            { "value": "146", "label": "Rasa" },
            { "value": "147", "label": "Rawang" },
            { "value": "148", "label": "Sabak Bernam" },
            { "value": "149", "label": "Saujana"},
            { "value": "150", "label": "Sekinchan" },
            { "value": "151", "label": "Selayang" },
            { "value": "152", "label": "Semenyih" },
            { "value": "153", "label": "Sepang" },
            { "value": "154", "label": "Serdang" },
            { "value": "155", "label": "Serendah" },
            { "value": "156", "label": "Seri Kembangan" },
            { "value": "157", "label": "Setia Alam/Alam Nusantara" },
            { "value": "158", "label": "Setia Eco Park" },
            { "value": "159", "label": "Shah Alam" },
            { "value": "160", "label": "SierraMas" },
            { "value": "161", "label": "Bandar Sri Damansara" },
            { "value": "162", "label": "SS2" },
            { "value": "163", "label": "Subang Bestari" },
            { "value": "164", "label": "Subang Heights" },
            { "value": "165", "label": "Subang Jaya" },
            { "value": "167", "label": "Sungai Besar" },
            { "value": "168", "label": "Sungai Buloh" },
            { "value": "169", "label": "Sungai Pelek" },
            { "value": "173", "label": "Taman Melawati" },
            { "value": "175", "label": "Taman TTDI Jaya"},
            { "value": "176", "label": "Tanjong Karang"},
            { "value": "177", "label": "Tanjong Sepat" },
            { "value": "178", "label": "Telok Panglima Garang" },
            { "value": "179", "label": "Tropicana" },
            { "value": "180", "label": "Ulu Kelang" },
            { "value": "181", "label": "USJ" },
            { "value": "182", "label": "USJ Heights" },
            { "value": "183", "label": "Valencia" },
            { "value": "1079", "label": "Bandar Country Homes" },
            { "value": "1080", "label": "Bandar Damai Perdana" },
            { "value": "1081", "label": "Bandar Puncak Alam" },
            { "value": "1082", "label": "Batu 9th Cheras" },
            { "value": "1084", "label": "Cheras South" },
            { "value": "1085", "label": "Jeram" },
            { "value": "1086", "label": "Kepong" },
            { "value": "1087", "label": "Keramat" },
            { "value": "1088", "label": "Pandan Indah" },
            { "value": "1089", "label": "Pandan Jaya" },
            { "value": "1090", "label": "Pandan Perdana" },
            { "value": "1091", "label": "Subang" },
            { "value": "1092", "label": "Sunway Damansara" },
        ]
    },
    {
        "label": "Penang",
        "value": "3",
        "id": "3",
        "drop": [
            { "value": "184", "label": "Air Tawar" },
            { "value": "185", "label": "Alma" },
            { "value": "186", "label": "Ayer Itam" },
            { "value": "187", "label": "Bagan Ajam" },
            { "value": "188", "label": "Bagan Jermal" },
            { "value": "189", "label": "Bagan Lalang" },
            { "value": "190", "label": "Balik Pulau" },
            { "value": "191", "label": "Bandar Perda" },
            { "value": "193", "label": "Batu Ferringhi" },
            { "value": "194", "label": "Batu Kawan" },
            { "value": "195", "label": "Batu Maung" },
            { "value": "196", "label": "Batu Uban" },
            { "value": "197", "label": "Bayan Baru" },
            { "value": "198", "label": "Bayan Lepas" },
            { "value": "199", "label": "Berapit" },
            { "value": "200", "label": "Bertam" },
            { "value": "201", "label": "Bukit Dumbar" },
            { "value": "202", "label": "Bukit Jambul" },
            { "value": "203", "label": "Bukit Mertajam" },
            { "value": "204", "label": "Bukit Minyak" },
            { "value": "205", "label": "Bukit Tambun" },
            { "value": "206", "label": "Bukit Tengah" },
            { "value": "207", "label": "Butterworth" },
            { "value": "209", "label": "Gelugor" },
            { "value": "210", "label": "Georgetown" },
            { "value": "211", "label": "Gertak Sanggul" },
            { "value": "212", "label": "Greenlane" },
            { "value": "214", "label": "Jelutong" },
            { "value": "215", "label": "Juru" },
            { "value": "216", "label": "Kampung Gajah" },
            { "value": "217", "label": "Kepala Batas" },
            { "value": "218", "label": "Kubang Semang" },
            { "value": "220", "label": "Minden Heights" },
            { "value": "221", "label": "Nibong Tebal" },
            { "value": "222", "label": "Pauh Jaya" },
            { "value": "223", "label": "Paya Terubong" },
            { "value": "224", "label": "Penaga" },
            { "value": "225", "label": "Penang Hill" },
            { "value": "229", "label": "Permatang Pauh" },
            { "value": "230", "label": "Permatang Tinggi" },
            { "value": "231", "label": "Persiaran Gurney" },
            { "value": "235", "label": "Pulau Tikus" },
            { "value": "236", "label": "Raja Uda" },
            { "value": "237", "label": "Relau" },
            { "value": "239", "label": "Seberang Jaya" },
            { "value": "240", "label": "Seberang Perai" },
            { "value": "242", "label": "Simpang Ampat" },
            { "value": "243", "label": "Sungai Ara" },
            { "value": "244", "label": "Sungai Bakap"},
            { "value": "245", "label": "Sungai Dua (Island)" },
            { "value": "246", "label": "Sungai Dua (Mainland)" },
            { "value": "247", "label": "Sungai Jawi" },
            { "value": "248", "label": "Sungai Nibong" },
            { "value": "249", "label": "Sungai Pinang" },
            { "value": "250", "label": "Sungai Puyu" },
            { "value": "251", "label": "Tanjung Bungah" },
            { "value": "252", "label": "Tanjung Tokong" },
            { "value": "253", "label": "Tasek Gelugor" },
            { "value": "254", "label": "Teluk Bahang" },
            { "value": "255", "label": "Teluk Kumbar" },
            { "value": "258", "label": "Valdor" },
        ]
    },
    {
        "label": "Johor",
        "value": "4",
        "id": "4",
        "drop": [
            { "value": "259", "label": "Ayer Baloi" },
            { "value": "260", "label": "Ayer Hitam" },
            { "value": "261", "label": "Bakri" },
            { "value": "262", "label": "Batu Anam" },
            { "value": "263", "label": "Batu Pahat" },
            { "value": "264", "label": "Bekok" },
            { "value": "265", "label": "Benut" },
            { "value": "266", "label": "Bukit Gambir" },
            { "value": "267", "label": "Bukit Indah" },
            { "value": "268", "label": "Bukit Pasir" },
            { "value": "269", "label": "Chaah" },
            { "value": "270", "label": "Endau" },
            { "value": "271", "label": "Gelang Patah" },
            { "value": "272", "label": "Gerisek" },
            { "value": "273", "label": "Gugusan Taib Andak" },
            { "value": "274", "label": "Horizon Hills" },
            { "value": "275", "label": "Jementah" },
            { "value": "276", "label": "Johor Bahru" },
            { "value": "277", "label": "Kahang" },
            { "value": "278", "label": "Kampung Kenangan Tun Dr Ismail" },
            { "value": "279", "label": "Kluang" },
            { "value": "280", "label": "Kota Tinggi" },
            { "value": "281", "label": "Kukup" },
            { "value": "282", "label": "Kulai" },
            { "value": "283", "label": "Labis" },
            { "value": "284", "label": "Layang Layang" },
            { "value": "285", "label": "Ledang" },
            { "value": "286", "label": "East Ledang" },
            { "value": "287", "label": "Ledang Heights" },
            { "value": "288", "label": "Masai" },
            { "value": "289", "label": "Mersing" },
            { "value": "290", "label": "Muar" },
            { "value": "291", "label": "Nusajaya" },
            { "value": "292", "label": "Pagoh" },
            { "value": "293", "label": "Paloh" },
            { "value": "294", "label": "Panchor" },
            { "value": "295", "label": "Parit Jawa" },
            { "value": "296", "label": "Parit Raja" },
            { "value": "297", "label": "Parit Sulong" },
            { "value": "298", "label": "Pasir Gudang" },
            { "value": "299", "label": "Pekan Nanas (Pekan Nenas)" },
            { "value": "300", "label": "Pengerang" },
            { "value": "301", "label": "Permas Jaya/Senibong" },
            { "value": "302", "label": "Plentong" },
            { "value": "303", "label": "Pontian" },
            { "value": "305", "label": "Rengam" },
            { "value": "306", "label": "Rengit" },
            { "value": "307", "label": "Segamat" },
            { "value": "308", "label": "Semerah" },
            { "value": "309", "label": "Senai" },
            { "value": "310", "label": "Senggarang" },
            { "value": "312", "label": "Seri Gading" },
            { "value": "313", "label": "Simpang Renggam" },
            { "value": "315", "label": "Setia Tropika" },
            { "value": "316", "label": "Skudai" },
            { "value": "317", "label": "Sungai Mati" },
            { "value": "318", "label": "Tampoi" },
            { "value": "319", "label": "Tangkak" },
            { "value": "320", "label": "Ulu Tiram" },
            { "value": "321", "label": "Yong Peng" },
            { "value": "1093", "label": "Gemas" },
            { "value": "1094", "label": "Kangkar Pulai" },
            { "value": "1095", "label": "Kota Iskandar" },
        ]
    },
    {
        "label": "Kedah",
        "value": "5",
        "id": "5",
        "drop": [
            { "value": "322", "label": "Alor Setar" },
            { "value": "323", "label": "Ayer Hitam" },
            { "value": "324", "label": "Baling" },
            { "value": "325", "label": "Bandar Baharu" },
            { "value": "326", "label": "Bedong" },
            { "value": "327", "label": "Bukit Kayu Hitam" },
            { "value": "328", "label": "Changlun" },
            { "value": "329", "label": "Guar Chempedak" },
            { "value": "330", "label": "Gurun" },
            { "value": "331", "label": "Jitra" },
            { "value": "332", "label": "Karangan" },
            { "value": "333", "label": "Kepala Batas" },
            { "value": "334", "label": "Kodiang" },
            { "value": "335", "label": "Kota Sarang Semut" },
            { "value": "336", "label": "Kota Setar" },
            { "value": "337", "label": "Kuala Kedah" },
            { "value": "338", "label": "Kuala Ketil" },
            { "value": "339", "label": "Kuala Muda" },
            { "value": "340", "label": "Kuala Nerang" },
            { "value": "341", "label": "Kubang Pasu" },
            { "value": "342", "label": "Kulim" },
            { "value": "343", "label": "Kupang" },
            { "value": "344", "label": "Langgar" },
            { "value": "345", "label": "Langkawi" },
            { "value": "346", "label": "Lunas" },
            { "value": "347", "label": "Merbok" },
            { "value": "348", "label": "Padang Serai" },
            { "value": "349", "label": "Padang Terap" },
            { "value": "350", "label": "Pendang" },
            { "value": "351", "label": "Pokok Sena" },
            { "value": "352", "label": "Pulau Langkawi" },
            { "value": "353", "label": "Semeling" },
            { "value": "354", "label": "Serdang" },
            { "value": "355", "label": "Sik" },
            { "value": "356", "label": "Simpang Empat" },
            { "value": "357", "label": "Sungai Lalang" },
            { "value": "358", "label": "Sungai Pasir" },
            { "value": "359", "label": "Sungai Petani" },
            { "value": "360", "label": "Univesity Utara" },
            { "value": "361", "label": "Yan" },
        ]
    },
    {
        "label": "Kelantan",
        "value": "6",
        "id": "6",
        "drop": [
            { "value": "362", "label": "Ayer Lanas" },
            { "value": "363", "label": "Bachok" },
            { "value": "364", "label": "Cherang Ruku" },
            { "value": "365", "label": "Dabong" },
            { "value": "366", "label": "Gua Musang" },
            { "value": "367", "label": "Jeli" },
            { "value": "368", "label": "Kem Desa Pahwalan" },
            { "value": "369", "label": "Ketereh" },
            { "value": "370", "label": "Kota Bharu" },
            { "value": "371", "label": "Kuala Balah" },
            { "value": "372", "label": "Kuala Kerai"},
            { "value": "373", "label": "Kuala Krai" },
            { "value": "374", "label": "Machang" },
            { "value": "375", "label": "Melor" },
            { "value": "376", "label": "Pasir Mas" },
            { "value": "377", "label": "Pasir Puteh" },
            { "value": "378", "label": "Pulai Chondong" },
            { "value": "379", "label": "Rantau Panjang" },
            { "value": "380", "label": "Selising" },
            { "value": "381", "label": "Tanah Merah" },
            { "value": "382", "label": "Tawang" },
            { "value": "383", "label": "Temangan" },
            { "value": "384", "label": "Tumpat" },
            { "value": "385", "label": "Wakaf Baru" },
        ]
    },
    {
        "label": "Labuan",
        "value": "7",
        "id": "7",
        "drop": [
            { "value": "1096", "label": "Labuan" }
        ]
    },
    {
        "label": "Melaka",
        "value": "8",
        "id": "8",
        "drop": [
            { "value": "386", "label": "Alor Gajah" },
            { "value": "387", "label": "Asahan" },
            { "value": "388", "label": "Ayer Keroh" },
            { "value": "389", "label": "Bandar Hilir" },
            { "value": "390", "label": "Batu Berendam" },
            { "value": "391", "label": "Bemban" },
            { "value": "392", "label": "Bertam Malim" },
            { "value": "393", "label": "Bertam Ulu" },
            { "value": "394", "label": "Bukit Beruang" },
            { "value": "395", "label": "Bukit Katil" },
            { "value": "396", "label": "Bukit Rambai" },
            { "value": "397", "label": "Bukit Serindit" },
            { "value": "398", "label": "Cheng" },
            { "value": "399", "label": "Durian Tunggal" },
            { "value": "400", "label": "Jasin" },
            { "value": "401", "label": "Klebang" },
            { "value": "402", "label": "Krubong" },
            { "value": "403", "label": "Kuala Linggi"},
            { "value": "404", "label": "Kuala Sungai Baru" },
            { "value": "405", "label": "Lubok China" },
            { "value": "406", "label": "Masjid Tanah" },
            { "value": "407", "label": "Melaka Jaya" },
            { "value": "408", "label": "Melaka Raya" },
            { "value": "409", "label": "Melaka Tengah" },
            { "value": "410", "label": "Merlimau" },
            { "value": "411", "label": "Pokok Mangga" },
            { "value": "412", "label": "Rembia" },
            { "value": "413", "label": "Selandar" },
            { "value": "414", "label": "Simpang Ampat" },
            { "value": "415", "label": "Sungai Rambai" },
            { "value": "416", "label": "Sungai Udang" },
            { "value": "417", "label": "Taman Asean" },
            { "value": "418", "label": "Taman Malim Jaya" },
            { "value": "419", "label": "Taman Seri Paya Rumput" },
            { "value": "420", "label": "Tanjong Kling" },
            { "value": "421", "label": "Ujong Pasir" },
        ]
    },
    {
        "label": "Negeri Sembilan",
        "value": "9",
        "id": "9",
        "drop": [
            { "value": "422", "label": "Bahau" },
            { "value": "423", "label": "Bandar Baru Serting" },
            { "value": "424", "label": "Batang Melaka" },
            { "value": "425", "label": "Batu Kikir" },
            { "value": "426", "label": "Gemas" },
            { "value": "427", "label": "Gemencheh" },
            { "value": "428", "label": "Jelebu" },
            { "value": "429", "label": "Jempol" },
            { "value": "430", "label": "Johol" },
            { "value": "431", "label": "Juasseh" },
            { "value": "432", "label": "Kota" },
            { "value": "433", "label": "Kuala Klawang" },
            { "value": "434", "label": "Kuala Pilah" },
            { "value": "435", "label": "Labu" },
            { "value": "436", "label": "Lenggeng" },
            { "value": "437", "label": "Linggi" },
            { "value": "438", "label": "Mambau" },
            { "value": "439", "label": "Mantin" },
            { "value": "440", "label": "Nilai" },
            { "value": "441", "label": "Pasir Panjang" },
            { "value": "442", "label": "Pedas" },
            { "value": "443", "label": "Port Dickson" },
            { "value": "444", "label": "Rantau" },
            { "value": "445", "label": "Rembau" },
            { "value": "446", "label": "Rompin" },
            { "value": "447", "label": "Senawang" },
            { "value": "448", "label": "Seremban" },
            { "value": "449", "label": "Sri Rusa" },
            { "value": "450", "label": "Siliau" },
            { "value": "451", "label": "Simpang Durian" },
            { "value": "452", "label": "Simpang Pertang" },
            { "value": "453", "label": "Sri Menanti" },
            { "value": "454", "label": "Tampin" },
            { "value": "455", "label": "Tanjong Ipoh" },
        ]
    },
    {
        "label": "Pahang",
        "value": "10",
        "id": "10",
        "drop": [
            { "value": "456", "label": "Balok" },
            { "value": "457", "label": "Bandar Pusat Jengka" },
            { "value": "458", "label": "Bandar Tun Abdul Razak" },
            { "value": "459", "label": "Benta" },
            { "value": "460", "label": "Bentong" },
            { "value": "461", "label": "Bera" },
            { "value": "462", "label": "Brinchang" },
            { "value": "463", "label": "Bukit Fraser" },
            { "value": "464", "label": "Cameron Highlands" },
            { "value": "465", "label": "Chenor" },
            { "value": "466", "label": "Daerah Rompin" },
            { "value": "467", "label": "Damak" },
            { "value": "468", "label": "Dong" },
            { "value": "469", "label": "Genting Highlands" },
            { "value": "470", "label": "Jerantut" },
            { "value": "471", "label": "Karak" },
            { "value": "472", "label": "Kuala Lipis" },
            { "value": "473", "label": "Kuala Rompin" },
            { "value": "474", "label": "Kuantan" },
            { "value": "475", "label": "Lanchang" },
            { "value": "476", "label": "Lurah Bilut" },
            { "value": "477", "label": "Maran Mengkarak" },
            { "value": "478", "label": "Mentakab" },
            { "value": "479", "label": "Muadzam Shah" },
            { "value": "480", "label": "Padang Tengku" },
            { "value": "481", "label": "Pekan" },
            { "value": "482", "label": "Raub" },
            { "value": "483", "label": "Ringlet" },
            { "value": "484", "label": "Rompin District" },
            { "value": "485", "label": "Sega" },
            { "value": "486", "label": "Sungai Koyan" },
            { "value": "487", "label": "Sungai Lembing" },
            { "value": "488", "label": "Sungai Ruan" },
            { "value": "489", "label": "Tanah Rata" },
            { "value": "490", "label": "Temerloh" },
            { "value": "491", "label": "Triang" },
        ]
    },
    {
        "label": "Perak",
        "value": "11",
        "id": "11",
        "drop": [
            { "value": "492", "label": "Ampang" },
            { "value": "493", "label": "Ayer Tawar" },
            { "value": "494", "label": "Bagan Datoh" },
            { "value": "495", "label": "Bagan Serai" },
            { "value": "496", "label": "Batang Padang" },
            { "value": "497", "label": "Batu Gajah" },
            { "value": "498", "label": "Batu Kurau" },
            { "value": "499", "label": "Behrang Stesen" },
            { "value": "500", "label": "Beruas" },
            { "value": "501", "label": "Bidor" },
            { "value": "502", "label": "Bota" },
            { "value": "503", "label": "Changkat Jering" },
            { "value": "504", "label": "Changkat Keruing" },
            { "value": "505", "label": "Chemor" },
            { "value": "506", "label": "Chenderiang" },
            { "value": "507", "label": "Chenderong Balai" },
            { "value": "508", "label": "Chikus" },
            { "value": "509", "label": "Enggor" },
            { "value": "510", "label": "Gerik" },
            { "value": "511", "label": "Gopeng" },
            { "value": "512", "label": "Gugusan Manjoi" },
            { "value": "513", "label": "Gunung Rapat" },
            { "value": "514", "label": "Hilir Perak" },
            { "value": "515", "label": "Hulu Perak" },
            { "value": "516", "label": "Hutan Melintang" },
            { "value": "517", "label": "Intan" },
            { "value": "518", "label": "Ipoh" },
            { "value": "519", "label": "Ipoh Garden" },
            { "value": "520", "label": "Jelapang" },
            { "value": "521", "label": "Jeram" },
            { "value": "522", "label": "Kampar" },
            { "value": "523", "label": "Kampong Gajah" },
            { "value": "524", "label": "Kampong Kepayang" },
            { "value": "525", "label": "Kamunting" },
            { "value": "526", "label": "Klebang" },
            { "value": "527", "label": "Kerian" },
            { "value": "528", "label": "Kinta" },
            { "value": "529", "label": "Kuala Kangsar" },
            { "value": "530", "label": "Kuala Kurau" },
            { "value": "531", "label": "Kuala Sepetang" },
            { "value": "532", "label": "Lahat" },
            { "value": "533", "label": "Lambor Kanan" },
            { "value": "534", "label": "Langkap" },
            { "value": "535", "label": "Larut" },
            { "value": "536", "label": "Lenggong" },
            { "value": "537", "label": "Lumut" },
            { "value": "538", "label": "Malim Nawar" },
            { "value": "539", "label": "Mambang Diawan" },
            { "value": "540", "label": "Manjung" },
            { "value": "541", "label": "Manong Matang" },
            { "value": "542", "label": "Menglembu" },
            { "value": "543", "label": "Meru" },
            { "value": "544", "label": "Padang Rengas" },
            { "value": "545", "label": "Pangkor" },
            { "value": "546", "label": "Pantai Remis" },
            { "value": "547", "label": "Parit" },
            { "value": "548", "label": "Parit Buntar" },
            { "value": "549", "label": "Pasir Puteh" },
            { "value": "550", "label": "Pekan Baru" },
            { "value": "551", "label": "Pekan Lama (Old Town)" },
            { "value": "552", "label": "Pengkalan Hulu" },
            { "value": "553", "label": "Pusing" },
            { "value": "554", "label": "Rantau Panjang" },
            { "value": "555", "label": "Sauk" },
            { "value": "556", "label": "Selama" },
            { "value": "557", "label": "Selekoh" },
            { "value": "558", "label": "Selinsing" },
            { "value": "559", "label": "Semanggol" },
            { "value": "560", "label": "Seri Manjong" },
            { "value": "561", "label": "Si Putih" },
            { "value": "562", "label": "Simpang" },
            { "value": "563", "label": "Sitiawan" },
            { "value": "564", "label": "Slim River" },
            { "value": "565", "label": "Sri Iskandar" },
            { "value": "566", "label": "Station 18" },
            { "value": "567", "label": "Sungai Siput" },
            { "value": "568", "label": "Sungai Sumun" },
            { "value": "569", "label": "Sungkai" },
            { "value": "570", "label": "Sunway City" },
            { "value": "571", "label": "Taiping" },
            { "value": "572", "label": "Taman Cempaka Ipoh" },
            { "value": "573", "label": "Tambun" },
            { "value": "574", "label": "Tanjong Piandang" },
            { "value": "575", "label": "Tanjong Rambutan" },
            { "value": "576", "label": "Tanjong Tualang" },
            { "value": "577", "label": "Tanjung Malim" },
            { "value": "578", "label": "Tapah" },
            { "value": "579", "label": "Tasek" },
            { "value": "580", "label": "Teluk Intan" },
            { "value": "581", "label": "Temoh" },
            { "value": "582", "label": "TLDM Lumut" },
            { "value": "583", "label": "Trolak" },
            { "value": "584", "label": "Trong" },
            { "value": "585", "label": "Tronoh" },
            { "value": "586", "label": "Ulu Bernam" },
            { "value": "587", "label": "Ulu Kinta" },
        ]
    },
    {
        "label": "Perlis",
        "value": "12",
        "id": "12",
        "drop": [
            { "value": "588", "label": "Arau" },
            { "value": "589", "label": "Kaki Bukit" },
            { "value": "590", "label": "Kangar" },
            { "value": "591", "label": "Kuala Perlis" },
            { "value": "592", "label": "Padang Besar" },
            { "value": "593", "label": "Pauh" },
            { "value": "594", "label": "Perlis" },
            { "value": "595", "label": "Simpang Ampat" },
        ]
    },
    {
        "label": "Putrajaya",
        "value": "13",
        "id": "13",
        "drop": [
            { "value": "596", "label": "Cyberjaya" },
            { "value": "597", "label": "Putrajaya" },
        ]
    },
    {
        "label": "Sabah",
        "value": "14",
        "id": "14",
        "drop": [
            { "value": "598", "label": "Beaufort" },
            { "value": "599", "label": "Beluran" },
            { "value": "600", "label": "Bongawan" },
            { "value": "601", "label": "Inanam" },
            { "value": "602", "label": "Keningau" },
            { "value": "603", "label": "Kiansom" },
            { "value": "604", "label": "Kota Belud" },
            { "value": "605", "label": "Kota Kinabalu" },
            { "value": "606", "label": "Kota Kinabatangan" },
            { "value": "607", "label": "Kota Marudu" },
            { "value": "608", "label": "Kuala Penyu" },
            { "value": "609", "label": "Kudat" },
            { "value": "610", "label": "Kunak" },
            { "value": "611", "label": "Lahad Datu" },
            { "value": "612", "label": "Likas" },
            { "value": "613", "label": "Luyang" },
            { "value": "614", "label": "Membakut" },
            { "value": "615", "label": "Menumbok" },
            { "value": "616", "label": "Nabawan" },
            { "value": "617", "label": "Pamol" },
            { "value": "618", "label": "Papar" },
            { "value": "619", "label": "Penampang" },
            { "value": "620", "label": "Pitas" },
            { "value": "621", "label": "Pulatan" },
            { "value": "622", "label": "Ranau" },
            { "value": "623", "label": "Sandakan" },
            { "value": "624", "label": "Semporna" },
            { "value": "625", "label": "Sipitang" },
            { "value": "626", "label": "Tambunan" },
            { "value": "627", "label": "Tamparuli" },
            { "value": "628", "label": "Tawau" },
            { "value": "629", "label": "Telipok" },
            { "value": "630", "label": "Tenom" },
            { "value": "631", "label": "Tuaran" },
        ]
    },
    {
        "label": "Sarawak",
        "value": "15",
        "id": "15",
        "drop": [
            { "value": "632", "label": "Asajaya" },
            { "value": "633", "label": "Balingian" },
            { "value": "634", "label": "Baram" },
            { "value": "635", "label": "Bau" },
            { "value": "636", "label": "Bekenu" },
            { "value": "637", "label": "Belaga" },
            { "value": "638", "label": "Belawai" },
            { "value": "639", "label": "Betong" },
            { "value": "640", "label": "Bintagor" },
            { "value": "641", "label": "Bintulu" },
            { "value": "642", "label": "Dalat" },
            { "value": "643", "label": "Daro" },
            { "value": "644", "label": "Debak" },
            { "value": "645", "label": "Engkilili" },
            { "value": "646", "label": "Julau" },
            { "value": "647", "label": "Kabong" },
            { "value": "648", "label": "Kanowit" },
            { "value": "649", "label": "Kapit" },
            { "value": "650", "label": "Kota Samarahan" },
            { "value": "651", "label": "Kuching" },
            { "value": "652", "label": "Lawas" },
            { "value": "653", "label": "Limbang" },
            { "value": "654", "label": "Lingga" },
            { "value": "655", "label": "Long Lama" },
            { "value": "656", "label": "Lubok Antu" },
            { "value": "657", "label": "Lundu" },
            { "value": "658", "label": "Lutong" },
            { "value": "659", "label": "Maradong" },
            { "value": "660", "label": "Marudi" },
            { "value": "661", "label": "Matu" },
            { "value": "662", "label": "Miri" },
            { "value": "663", "label": "Mukah" },
            { "value": "664", "label": "Nanga Medamit" },
            { "value": "665", "label": "Niah" },
            { "value": "666", "label": "Pusa" },
            { "value": "667", "label": "Roban" },
            { "value": "668", "label": "Saratok" },
            { "value": "669", "label": "Sarikei" },
            { "value": "670", "label": "Sebauh" },
            { "value": "671", "label": "Sebuyau" },
            { "value": "672", "label": "Serian" },
            { "value": "673", "label": "Sibu" },
            { "value": "674", "label": "Simunjan" },
            { "value": "675", "label": "Song" },
            { "value": "676", "label": "Spaoh" },
            { "value": "677", "label": "Sri Aman" },
            { "value": "678", "label": "Sundar" },
            { "value": "679", "label": "Tanjung Kidurong" },
            { "value": "680", "label": "Tatau" },
        ]
    },
    {
        "label": "Terengganu",
        "value": "16",
        "id": "16",
        "drop": [
            { "value": "681", "label": "Ajil" },
            { "value": "682", "label": "Al Muktafi Billah Shah" },
            { "value": "683", "label": "Besut" },
            { "value": "684", "label": "Bukit Besi" },
            { "value": "685", "label": "Bukit Rakit" },
            { "value": "686", "label": "Cukai" },
            { "value": "687", "label": "Dungun" },
            { "value": "688", "label": "Hulu Terengganu" },
            { "value": "689", "label": "Jerteh" },
            { "value": "690", "label": "Kemaman" },
            { "value": "691", "label": "Kemasik" },
            { "value": "692", "label": "Kerteh" },
            { "value": "693", "label": "Kijal" },
            { "value": "694", "label": "Kuala Berang" },
            { "value": "695", "label": "Kuala Terengganu" },
            { "value": "696", "label": "Marang" },
            { "value": "697", "label": "Paka" },
            { "value": "698", "label": "Permaisuri" },
            { "value": "699", "label": "Setiu" },
        ]
    }
]

