[
  {"id":"fh", "value":"fh", "label":"Freehold"},
  {"id":"fh", "value":"999lh", "label":"999 years" },
  {"id":"fh", "value":"99lh", "label":"99 years" },
  {"id":"fh", "value":"30lh", "label":"30 years" },
  {"id":"fh", "value":"60lh", "label":"60 years" },
  {"id":"fh", "value":"lh", "label":"Leasehold" },
  {"id":"fh", "value":"mrl", "label":"Malay Reserved Land" }
]
