{
  "project_info": {
    "project_number": "263063896369",
    "firebase_url": "https://edgeprop-proagent.firebaseio.com",
    "project_id": "edgeprop-proagent",
    "storage_bucket": "edgeprop-proagent.appspot.com"
  },
  "client": [
    {
      "client_info": {
        "mobilesdk_app_id": "1:263063896369:android:942bd517c5aae94a6ff010",
        "android_client_info": {
          "package_name": "com.edgeprop.agent"
        }
      },
      "oauth_client": [
        {
          "client_id": "263063896369-48jmq4s3fb9t8ba9seifb8n19q6l6ar3.apps.googleusercontent.com",
          "client_type": 3
        }
      ],
      "api_key": [
        {
          "current_key": "AIzaSyARlzVwbCxhrFNfPU9shj1jpa6SGc18KEM"
        }
      ],
      "services": {
        "appinvite_service": {
          "other_platform_oauth_client": [
            {
              "client_id": "263063896369-48jmq4s3fb9t8ba9seifb8n19q6l6ar3.apps.googleusercontent.com",
              "client_type": 3
            },
            {
              "client_id": "263063896369-cbilc92kqbl360uro4u21knsmomtn5l4.apps.googleusercontent.com",
              "client_type": 2,
              "ios_info": {
                "bundle_id": "com.edgeprop.agent"
              }
            }
          ]
        }
      }
    }
  ],
  "configuration_version": "1"
}